<?xml version="1.0" encoding="UTF-8" standalone="no"?>
<svg
   xmlns:dc="http://purl.org/dc/elements/1.1/"
   xmlns:cc="http://creativecommons.org/ns#"
   xmlns:rdf="http://www.w3.org/1999/02/22-rdf-syntax-ns#"
   xmlns:svg="http://www.w3.org/2000/svg"
   xmlns="http://www.w3.org/2000/svg"
   xmlns:sodipodi="http://sodipodi.sourceforge.net/DTD/sodipodi-0.dtd"
   xmlns:inkscape="http://www.inkscape.org/namespaces/inkscape"
   version="1.0"
   width="24"
   height="24"
   viewBox="0 0 18 18"
   preserveAspectRatio="xMidYMid meet"
   id="svg16"
   sodipodi:docname="gaming-small-light.svg"
   inkscape:version="1.0 (4035a4fb49, 2020-05-01)">
  <metadata
     id="metadata22">
    <rdf:RDF>
      <cc:Work
         rdf:about="">
        <dc:format>image/svg+xml</dc:format>
        <dc:type
           rdf:resource="http://purl.org/dc/dcmitype/StillImage" />
        <dc:title></dc:title>
      </cc:Work>
    </rdf:RDF>
  </metadata>
  <defs
     id="defs20" />
  <sodipodi:namedview
     units="px"
     inkscape:document-rotation="0"
     pagecolor="#ffffff"
     bordercolor="#666666"
     borderopacity="1"
     objecttolerance="10"
     gridtolerance="10"
     guidetolerance="10"
     inkscape:pageopacity="0"
     inkscape:pageshadow="2"
     inkscape:window-width="1920"
     inkscape:window-height="1017"
     id="namedview18"
     showgrid="false"
     inkscape:zoom="22.010248"
     inkscape:cx="16.030285"
     inkscape:cy="15.442578"
     inkscape:window-x="-8"
     inkscape:window-y="-8"
     inkscape:window-maximized="1"
     inkscape:current-layer="svg16" />
  <path
     style="fill:#2c7df7;fill-opacity:1;stroke:none;stroke-width:0.00904287"
     id="path2"
     d="M 4.3112504,3.3740059 C 3.2170589,3.6543361 2.0776529,4.784699 1.2909201,6.3672075 0.32332932,8.3385606 -0.00221527,9.7221253 -0.00221527,12.019023 c -0.00904295,1.473993 0.00904295,1.68198 0.19894393,2.233597 0.47023102,1.347393 1.59155124,1.781453 2.91181534,1.112278 0.6058746,-0.307459 1.2931352,-0.868119 2.1974257,-1.799539 l 0.7957756,-0.822904 h 2.8846865 2.8846872 l 1.021848,1.003763 c 1.048977,1.039934 1.935181,1.68198 2.504884,1.844752 1.067063,0.298416 1.944225,-0.162772 2.378285,-1.256963 0.189901,-0.461188 0.207987,-0.65109 0.207987,-2.26977 0,-1.347393 -0.03617,-1.944224 -0.162773,-2.5320136 C 17.215475,6.6837089 15.678181,4.1697817 14.131845,3.5277354 13.236597,3.1569764 12.079105,3.2745341 11.102472,3.8442368 10.243396,4.3506394 9.6646502,4.495326 8.7513164,4.4501117 8.055013,4.4139379 7.928412,4.3777682 6.9789075,3.8894515 6.0565312,3.4282636 5.8847158,3.364963 5.2788414,3.3378341 4.9080824,3.3197472 4.4740227,3.3287906 4.3112504,3.374008 Z m 1.410693,0.7776899 c 0.2079871,0.072343 0.6149179,0.2712871 0.9133334,0.4431025 0.7686469,0.452145 1.3383496,0.5968315 2.3601979,0.5968315 1.0218483,0 1.7362383,-0.1899012 2.4325413,-0.6330033 0.49736,-0.3165019 1.148449,-0.5425743 1.573466,-0.5425743 0.415974,0 1.311221,0.4611879 1.763366,0.9133333 1.582509,1.5734656 2.640529,4.7565675 2.513928,7.5689115 -0.04521,1.202706 -0.207986,1.763367 -0.614918,2.152211 -0.633003,0.605875 -1.464951,0.235115 -3.201188,-1.428778 -0.605875,-0.587789 -1.211749,-1.103235 -1.347393,-1.157493 -0.153729,-0.05425 -1.365479,-0.09043 -3.1469309,-0.09043 -3.3730034,0 -3.1921451,-0.03617 -4.1145214,0.940461 C 3.5697322,14.279749 2.4122404,15.039353 1.7973228,14.921795 0.88398943,14.74998 0.49514453,13.104171 0.79356041,10.662587 1.1462336,7.6874717 2.5840555,5.0017286 4.2208214,4.2421246 4.7633958,3.9889233 5.1884119,3.9617945 5.7219434,4.1516958 Z" />
  <path
     style="fill:#2c7df7;fill-opacity:1;stroke:none;stroke-width:0.00904287"
     id="path4"
     d="M 11.907291,6.5842371 C 11.102472,6.9459532 11.120558,8.0763164 11.943456,8.4109035 12.70306,8.7364484 13.471707,7.985887 13.20042,7.1901121 13.019565,6.6384947 12.422734,6.3581646 11.907288,6.5842371 Z m 0.768646,0.5244884 c 0.0633,0.063301 0.108515,0.2351155 0.108515,0.388845 0,0.1537295 -0.04521,0.3255446 -0.108515,0.3888447 -0.0633,0.063301 -0.235115,0.1085147 -0.388845,0.1085147 -0.352673,0 -0.49736,-0.1446865 -0.49736,-0.4973594 0,-0.1537295 0.04521,-0.3255443 0.108516,-0.388845 0.144686,-0.1446865 0.633003,-0.1446865 0.777689,0 z" />
  <path
     style="fill:#2c7df7;fill-opacity:1;stroke:none;stroke-width:0.00904287"
     id="path6"
     d="M 3.7053757,6.8736101 C 3.6149467,6.964039 3.5606893,7.1720262 3.5606893,7.4613987 V 7.9045011 H 3.117587 c -0.6420463,0 -0.7324754,0.1266006 -0.7324754,0.994719 0,0.8681195 0.090429,0.9947205 0.7324754,0.9947205 h 0.4431023 v 0.4431014 c 0,0.642046 0.1266006,0.732476 0.9947194,0.732476 0.8681193,0 0.9947199,-0.09043 0.9947199,-0.732476 V 9.8939406 h 0.443102 c 0.6420462,0 0.7324756,-0.126601 0.7324756,-0.9947205 0,-0.8681184 -0.090429,-0.994719 -0.7324756,-0.994719 H 5.5501286 V 7.4613987 c 0,-0.6420462 -0.1266006,-0.7324752 -0.9947199,-0.7324752 -0.5244885,0 -0.750561,0.036174 -0.850033,0.1446866 z m 1.3021785,0.8409904 c 0,0.5787455 0.1537295,0.7324753 0.7324751,0.7324753 H 6.1831319 V 8.8992201 9.351366 H 5.7400293 c -0.5787456,0 -0.7324751,0.1537296 -0.7324751,0.732475 v 0.443103 H 4.5554087 4.1032637 v -0.443103 c 0,-0.5787454 -0.1537294,-0.732475 -0.7324754,-0.732475 H 2.927686 V 8.8992201 8.4470758 h 0.4431023 c 0.578746,0 0.7324754,-0.1537298 0.7324754,-0.7324753 V 7.271498 h 0.452145 0.4521455 z" />
  <path
     style="fill:#2c7df7;fill-opacity:1;stroke:none;stroke-width:0.00904287"
     id="path8"
     d="m 14.439304,7.578957 c -0.804819,0.3617158 -0.786733,1.4920785 0.03617,1.8266662 0.759603,0.3255449 1.52825,-0.4250165 1.256963,-1.220792 C 15.551583,7.6332141 14.954751,7.3528839 14.439304,7.578957 Z m 0.768646,0.5244882 c 0.0633,0.0633 0.108516,0.2351154 0.108516,0.3888449 0,0.1537289 -0.04522,0.3255442 -0.108516,0.388845 -0.0633,0.063297 -0.235115,0.1085145 -0.388845,0.1085145 -0.352672,0 -0.497359,-0.1446859 -0.497359,-0.4973595 0,-0.1537295 0.04521,-0.3255448 0.108514,-0.3888449 0.144687,-0.1446865 0.633004,-0.1446865 0.77769,0 z" />
  <path
     style="fill:#2c7df7;fill-opacity:1;stroke:none;stroke-width:0.00904287"
     id="path10"
     d="M 11.907291,9.1162506 C 11.102472,9.477967 11.120558,10.60833 11.943456,10.942917 12.70306,11.268462 13.471707,10.517901 13.20042,9.7221253 13.019565,9.1705078 12.422734,8.8901773 11.907288,9.1162506 Z m 0.768646,0.5244881 c 0.0633,0.063297 0.108515,0.2351154 0.108515,0.3888453 0,0.153729 -0.04521,0.325545 -0.108515,0.388845 -0.0633,0.0633 -0.235115,0.108515 -0.388845,0.108515 -0.352673,0 -0.49736,-0.144687 -0.49736,-0.49736 0,-0.1537299 0.04521,-0.3255452 0.108516,-0.3888453 0.144686,-0.144686 0.633003,-0.144686 0.777689,0 z" />
  <path
     style="fill:#2c7df7;fill-opacity:1;stroke:none;stroke-width:0.00904287"
     id="path12"
     d="m 14.439304,10.382257 c -0.804819,0.361716 -0.786733,1.492079 0.03617,1.826667 0.759603,0.325544 1.528251,-0.425016 1.256964,-1.220792 -0.180861,-0.551618 -0.777693,-0.831947 -1.293138,-0.605875 z m 0.768646,0.524488 c 0.0633,0.0633 0.108516,0.235116 0.108516,0.388845 0,0.15373 -0.04522,0.325545 -0.108516,0.388845 -0.0633,0.0633 -0.235115,0.108515 -0.388845,0.108515 -0.352672,0 -0.497359,-0.144686 -0.497359,-0.49736 0,-0.153729 0.04521,-0.325545 0.108514,-0.388845 0.144687,-0.144686 0.633004,-0.144686 0.77769,0 z" />
</svg>
